{
    "archived_snapshots": {
        "closest": {
            "available": true,
            "url": "http://web.archive.org/web/20060101064348/http://www.example.com:80/",
            "timestamp": "20060101064348",
            "status": "200"
        }
    }
}